-------------------------------------------------------------------------------
Test set: com.epam.bondareva.dao.AuthorDaoTest
-------------------------------------------------------------------------------
Tests run: 6, Failures: 0, Errors: 0, Skipped: 0, Time elapsed: 6.038 sec
