-------------------------------------------------------------------------------
Test set: com.epam.bondareva.service.CommentServiceTest
-------------------------------------------------------------------------------
Tests run: 3, Failures: 0, Errors: 0, Skipped: 0, Time elapsed: 0.026 sec
